2014-02-25 10:06:52 97.127.185.91-T1033-3301T - Username Found- Password Match - Mozilla/5.0 (compatible; MSIE 9.0; Windows NT 6.0; WOW64; Trident/5.0)
2014-02-25 10:25:34 63.233.88.170-S075-57oS - Username Found - Password NOT Match - Mozilla/5.0 (compatible; MSIE 10.0; Windows NT 6.1; WOW64; Trident/6.0)
2014-02-25 10:25:47 63.233.88.170-S075-570S - Username Found- Password Match - Mozilla/5.0 (compatible; MSIE 10.0; Windows NT 6.1; WOW64; Trident/6.0)
2014-02-25 10:58:15 24.176.25.5-h571-175h - Username Found - Password NOT Match - Mozilla/5.0 (Windows NT 6.1) AppleWebKit/537.36 (KHTML, like Gecko) Chrome/32.0.1700.107 Safari/537.36
2014-02-25 10:58:33 24.176.25.5-h571-175H - Username Found- Password Match - Mozilla/5.0 (Windows NT 6.1) AppleWebKit/537.36 (KHTML, like Gecko) Chrome/32.0.1700.107 Safari/537.36
2014-02-25 11:06:13 108.247.226.131-D126-621D - Username Found- Password Match - Mozilla/4.0 (compatible; MSIE 8.0; Windows NT 5.1; Trident/4.0; GTB5; .NET CLR 1.1.4322; .NET CLR 2.0.50727; .NET CLR 3.0.4506.2152; .NET CLR 3.5.30729; .NET4.0C; .NET4.0E; IPH 1.1.21.4019)
2014-02-25 13:55:07 96.27.200.18-rickh@lensingonline.com-hummer01 - Username NOT Found - Password NOT Match - Mozilla/5.0 (Windows NT 6.1; WOW64; Trident/7.0; rv:11.0) like Gecko
2014-02-25 13:55:27 96.27.200.18-L6111-1116L - Username NOT Found - Password NOT Match - Mozilla/5.0 (Windows NT 6.1; WOW64; Trident/7.0; rv:11.0) like Gecko
2014-02-25 13:56:06 96.27.200.18-L1116-6111L - Username Found- Password Match - Mozilla/5.0 (Windows NT 6.1; WOW64; Trident/7.0; rv:11.0) like Gecko
2014-02-25 14:12:37 98.213.228.175-T055-550t - Username Found - Password NOT Match - Mozilla/5.0 (Windows NT 6.1; WOW64) AppleWebKit/537.36 (KHTML, like Gecko) Chrome/33.0.1750.117 Safari/537.36
2014-02-25 14:12:48 98.213.228.175-TO55-550T - Username NOT Found - Password NOT Match - Mozilla/5.0 (Windows NT 6.1; WOW64) AppleWebKit/537.36 (KHTML, like Gecko) Chrome/33.0.1750.117 Safari/537.36
2014-02-25 14:13:03 98.213.228.175-T055-550T - Username Found- Password Match - Mozilla/5.0 (Windows NT 6.1; WOW64) AppleWebKit/537.36 (KHTML, like Gecko) Chrome/33.0.1750.117 Safari/537.36
2014-02-25 14:36:19 108.247.226.131-D126-621D - Username Found- Password Match - Mozilla/4.0 (compatible; MSIE 8.0; Windows NT 5.1; Trident/4.0; GTB5; .NET CLR 1.1.4322; .NET CLR 2.0.50727; .NET CLR 3.0.4506.2152; .NET CLR 3.5.30729; .NET4.0C; .NET4.0E; IPH 1.1.21.4019)
2014-02-25 14:39:31 108.247.226.131-D126-621D - Username Found- Password Match - Mozilla/4.0 (compatible; MSIE 8.0; Windows NT 5.1; Trident/4.0; GTB5; .NET CLR 1.1.4322; .NET CLR 2.0.50727; .NET CLR 3.0.4506.2152; .NET CLR 3.5.30729; .NET4.0C; .NET4.0E; IPH 1.1.21.4019)
2014-02-25 14:46:13 108.247.226.131-D126-621D - Username Found- Password Match - Mozilla/4.0 (compatible; MSIE 8.0; Windows NT 5.1; Trident/4.0; GTB5; .NET CLR 1.1.4322; .NET CLR 2.0.50727; .NET CLR 3.0.4506.2152; .NET CLR 3.5.30729; .NET4.0C; .NET4.0E; IPH 1.1.21.4019)
2014-02-25 15:03:19 50.82.29.177-F029-920F - Username Found- Password Match - Mozilla/5.0 (Windows NT 6.1; WOW64) AppleWebKit/537.36 (KHTML, like Gecko) Chrome/33.0.1750.117 Safari/537.36
2014-02-25 15:11:40 50.82.29.177-F029-920F - Username Found- Password Match - Mozilla/5.0 (Windows NT 6.1; WOW64) AppleWebKit/537.36 (KHTML, like Gecko) Chrome/33.0.1750.117 Safari/537.36
2014-02-25 15:12:08 50.82.29.177-F029-920F - Username Found- Password Match - Mozilla/5.0 (Windows NT 6.1; WOW64) AppleWebKit/537.36 (KHTML, like Gecko) Chrome/33.0.1750.117 Safari/537.36
2014-02-25 15:39:21 68.191.186.49-C169-961C - Username Found- Password Match - Mozilla/5.0 (Windows NT 6.1; WOW64; Trident/7.0; rv:11.0) like Gecko
2014-02-25 15:47:56 74.142.89.254-T1008-8001T - Username Found- Password Match - Mozilla/5.0 (Windows NT 6.1; WOW64; Trident/7.0; rv:11.0) like Gecko
2014-02-25 15:48:07 64.83.249.36-S1016-6101S - Username Found- Password Match - Mozilla/5.0 (Windows NT 6.1; Trident/7.0; rv:11.0) like Gecko
2014-02-25 15:54:59 208.124.118.30-C087-780C - Username Found- Password Match - Mozilla/5.0 (Windows NT 6.1; WOW64; Trident/7.0; rv:11.0) like Gecko
2014-02-25 16:00:46 96.11.12.14-C087-780C - Username Found- Password Match - Mozilla/5.0 (Windows NT 5.1) AppleWebKit/537.36 (KHTML, like Gecko) Chrome/33.0.1750.117 Safari/537.36
2014-02-25 16:00:53 208.124.118.30-guest no guest-guest is guest - Username NOT Found - Password NOT Match [GUEST LOGIN] - Mozilla/5.0 (Windows NT 6.1; WOW64; Trident/7.0; rv:11.0) like Gecko
2014-02-25 16:19:47 69.21.196.26-B160-061B - Username Found- Password Match - Mozilla/5.0 (Windows NT 6.1; WOW64) AppleWebKit/537.36 (KHTML, like Gecko) Chrome/33.0.1750.117 Safari/537.36
2014-02-25 16:25:37 69.21.196.26-B160-061B - Username Found- Password Match - Mozilla/5.0 (Windows NT 6.1; WOW64) AppleWebKit/537.36 (KHTML, like Gecko) Chrome/33.0.1750.117 Safari/537.36
2014-02-25 16:31:11 98.213.228.175-T055-550t - Username Found - Password NOT Match - Mozilla/5.0 (Windows NT 6.1; WOW64) AppleWebKit/537.36 (KHTML, like Gecko) Chrome/33.0.1750.117 Safari/537.36
2014-02-25 16:31:31 98.213.228.175-T055-55ot - Username Found - Password NOT Match - Mozilla/5.0 (Windows NT 6.1; WOW64) AppleWebKit/537.36 (KHTML, like Gecko) Chrome/33.0.1750.117 Safari/537.36
2014-02-25 16:32:36 98.213.228.175-TO55-550t - Username NOT Found - Password NOT Match - Mozilla/5.0 (Windows NT 6.1; WOW64) AppleWebKit/537.36 (KHTML, like Gecko) Chrome/33.0.1750.117 Safari/537.36
2014-02-25 16:33:03 98.213.228.175-T055-550T - Username Found- Password Match - Mozilla/5.0 (Windows NT 6.1; WOW64) AppleWebKit/537.36 (KHTML, like Gecko) Chrome/33.0.1750.117 Safari/537.36
2014-02-25 17:23:45 98.213.228.175-T055-550T - Username Found- Password Match - Mozilla/5.0 (Windows NT 6.1; WOW64) AppleWebKit/537.36 (KHTML, like Gecko) Chrome/33.0.1750.117 Safari/537.36
2014-02-25 19:14:48 99.67.229.195-guest no guest-guest is guest - Username NOT Found - Password NOT Match [GUEST LOGIN] - Mozilla/5.0 (Windows NT 6.2; WOW64) AppleWebKit/537.36 (KHTML, like Gecko) Chrome/32.0.1700.107 Safari/537.36
2014-02-25 19:15:52 50.179.148.28-guest no guest-guest is guest - Username NOT Found - Password NOT Match [GUEST LOGIN] - Mozilla/5.0 (Macintosh; Intel Mac OS X 10_9_1) AppleWebKit/537.36 (KHTML, like Gecko) Chrome/33.0.1750.117 Safari/537.36
2014-02-25 20:48:48 173.19.205.174-guestnoguest-guestisguest - Username NOT Found - Password NOT Match - Mozilla/5.0 (compatible; MSIE 10.0; Windows NT 6.2; WOW64; Trident/6.0)
2014-02-25 20:49:11 173.19.205.174-guest no guest-guest is guest - Username NOT Found - Password NOT Match [GUEST LOGIN] - Mozilla/5.0 (compatible; MSIE 10.0; Windows NT 6.2; WOW64; Trident/6.0)
