2014-03-21 07:10:30 50.77.177.225-M065-560M - Username Found- Password Match - Mozilla/5.0 (Windows NT 6.1; WOW64) AppleWebKit/537.36 (KHTML, like Gecko) Chrome/33.0.1750.154 Safari/537.36
2014-03-21 07:15:24 50.77.177.225-M065-560M - Username Found- Password Match - Mozilla/5.0 (Windows NT 6.1; WOW64) AppleWebKit/537.36 (KHTML, like Gecko) Chrome/33.0.1750.154 Safari/537.36
2014-03-21 07:24:00 50.77.177.225-M065-560M - Username Found- Password Match - Mozilla/5.0 (Windows NT 6.1; WOW64) AppleWebKit/537.36 (KHTML, like Gecko) Chrome/33.0.1750.154 Safari/537.36
2014-03-21 07:25:30 50.77.177.225-M065-560M - Username Found- Password Match - Mozilla/5.0 (Windows NT 6.1; WOW64) AppleWebKit/537.36 (KHTML, like Gecko) Chrome/33.0.1750.154 Safari/537.36
2014-03-21 07:50:14 107.196.76.209-B1007-7001B - Username Found- Password Match - Mozilla/5.0 (Windows NT 5.1; rv:27.0) Gecko/20100101 Firefox/27.0
2014-03-21 07:58:13 208.124.118.30-B054-450B - Username Found- Password Match - Mozilla/5.0 (Windows NT 6.1; WOW64; Trident/7.0; rv:11.0) like Gecko
2014-03-21 07:58:42 208.124.118.30-B056-650B - Username Found- Password Match - Mozilla/5.0 (Windows NT 6.1; WOW64; Trident/7.0; rv:11.0) like Gecko
2014-03-21 08:21:22 208.124.118.30-B054-450B - Username Found- Password Match - Mozilla/5.0 (Windows NT 6.1; WOW64; Trident/7.0; rv:11.0) like Gecko
2014-03-21 09:15:50 70.194.136.225-guest no guest-guest is guest - Username NOT Found - Password NOT Match [GUEST LOGIN] - Mozilla/5.0 (iPad; CPU OS 7_1 like Mac OS X) AppleWebKit/537.51.2 (KHTML, like Gecko) Version/7.0 Mobile/11D167 Safari/9537.53
2014-03-21 09:24:54 99.68.78.126-S081-180S - Username Found- Password Match - Mozilla/5.0 (compatible; MSIE 10.0; Windows NT 6.2; WOW64; Trident/6.0; MALNJS)
2014-03-21 09:30:20 98.193.33.191-C042-240C - Username Found- Password Match - Mozilla/5.0 (Windows NT 5.1) AppleWebKit/537.36 (KHTML, like Gecko) Chrome/33.0.1750.154 Safari/537.36
2014-03-21 10:03:44 107.208.180.3-dkufahl-cabplus1 - Username NOT Found - Password NOT Match - Mozilla/5.0 (Windows NT 6.1; WOW64; Trident/7.0; rv:11.0) like Gecko
2014-03-21 10:03:50 107.208.180.3-DKUFAHL-cabplus1 - Username NOT Found - Password NOT Match - Mozilla/5.0 (Windows NT 6.1; WOW64; Trident/7.0; rv:11.0) like Gecko
2014-03-21 10:16:17 64.233.255.234-bobkissel-bkcars78 - Username Found- Password Match - Mozilla/5.0 (Windows NT 6.1; WOW64; Trident/7.0; rv:11.0) like Gecko
2014-03-21 10:16:28 107.208.180.3-C1054-4501C - Username Found- Password Match - Mozilla/5.0 (Windows NT 6.1; WOW64; Trident/7.0; rv:11.0) like Gecko
2014-03-21 10:16:29 107.208.180.3-C1054-4501C - Username Found- Password Match - Mozilla/5.0 (Windows NT 6.1; WOW64; Trident/7.0; rv:11.0) like Gecko
2014-03-21 10:17:02 107.208.180.3-C1054-4501C - Username Found- Password Match - Mozilla/5.0 (Windows NT 6.1; WOW64; Trident/7.0; rv:11.0) like Gecko
2014-03-21 10:19:34 107.208.180.3-C1054-4501C - Username Found- Password Match - Mozilla/5.0 (Windows NT 6.1; WOW64; Trident/7.0; rv:11.0) like Gecko
2014-03-21 10:19:56 107.208.180.3-C1054-4501C - Username Found- Password Match - Mozilla/5.0 (Windows NT 6.1; WOW64; Trident/7.0; rv:11.0) like Gecko
2014-03-21 10:26:42 208.124.118.30-guest no guest-guest is guest - Username NOT Found - Password NOT Match [GUEST LOGIN] - Mozilla/5.0 (Windows NT 6.1; WOW64) AppleWebKit/537.36 (KHTML, like Gecko) Chrome/33.0.1750.154 Safari/537.36
2014-03-21 14:03:50 98.213.228.175-T055-550T - Username Found- Password Match - Mozilla/5.0 (Windows NT 6.1; WOW64) AppleWebKit/537.36 (KHTML, like Gecko) Chrome/33.0.1750.154 Safari/537.36
2014-03-21 14:09:08 98.213.228.175-T055-550T - Username Found- Password Match - Mozilla/5.0 (Windows NT 6.1; WOW64) AppleWebKit/537.36 (KHTML, like Gecko) Chrome/33.0.1750.154 Safari/537.36
2014-03-21 14:09:40 98.213.228.175-T055-550T - Username Found- Password Match - Mozilla/5.0 (Windows NT 6.1; WOW64) AppleWebKit/537.36 (KHTML, like Gecko) Chrome/33.0.1750.154 Safari/537.36
2014-03-21 14:40:49 75.145.139.253-S019-91OS - Username Found - Password NOT Match - Mozilla/5.0 (Windows NT 6.1; WOW64) AppleWebKit/537.36 (KHTML, like Gecko) Chrome/33.0.1750.154 Safari/537.36
2014-03-21 14:41:01 75.145.139.253-S019-910S - Username Found- Password Match - Mozilla/5.0 (Windows NT 6.1; WOW64) AppleWebKit/537.36 (KHTML, like Gecko) Chrome/33.0.1750.154 Safari/537.36
2014-03-21 16:06:34 173.30.66.106-L1009-9001L - Username Found- Password Match - Mozilla/5.0 (Windows NT 6.1; WOW64; Trident/7.0; rv:11.0) like Gecko
2014-03-21 16:10:23 63.233.88.170-S075-570S - Username Found- Password Match - Mozilla/5.0 (compatible; MSIE 10.0; Windows NT 6.1; WOW64; Trident/6.0)
