2014-03-12 08:25:06 64.83.249.36-S1016-6101S - Username Found- Password Match - Mozilla/5.0 (Windows NT 6.1; Trident/7.0; rv:11.0) like Gecko
2014-03-12 08:36:07 107.5.128.72-guest no guest-guest is guest - Username NOT Found - Password NOT Match [GUEST LOGIN] - Mozilla/5.0 (Windows NT 6.3; WOW64; Trident/7.0; Touch; rv:11.0) like Gecko
2014-03-12 08:39:07 108.247.226.132-D126-621D - Username Found- Password Match - Mozilla/4.0 (compatible; MSIE 8.0; Windows NT 5.1; Trident/4.0; GTB5; .NET CLR 1.1.4322; .NET CLR 2.0.50727; .NET CLR 3.0.4506.2152; .NET CLR 3.5.30729; .NET4.0C; .NET4.0E; IPH 1.1.21.4019)
2014-03-12 08:43:48 108.247.226.132-D126-621D - Username Found- Password Match - Mozilla/4.0 (compatible; MSIE 8.0; Windows NT 5.1; Trident/4.0; GTB5; .NET CLR 1.1.4322; .NET CLR 2.0.50727; .NET CLR 3.0.4506.2152; .NET CLR 3.5.30729; .NET4.0C; .NET4.0E; IPH 1.1.21.4019)
2014-03-12 08:48:03 50.195.201.17-B154-451B - Username Found- Password Match - Mozilla/5.0 (compatible; MSIE 9.0; Windows NT 6.1; WOW64; Trident/5.0)
2014-03-12 08:48:04 69.21.196.26-B160-061B - Username Found- Password Match - Mozilla/5.0 (Windows NT 6.1; WOW64) AppleWebKit/537.36 (KHTML, like Gecko) Chrome/33.0.1750.146 Safari/537.36
2014-03-12 08:48:21 108.247.226.132-D126-621D - Username Found- Password Match - Mozilla/4.0 (compatible; MSIE 8.0; Windows NT 5.1; Trident/4.0; GTB5; .NET CLR 1.1.4322; .NET CLR 2.0.50727; .NET CLR 3.0.4506.2152; .NET CLR 3.5.30729; .NET4.0C; .NET4.0E; IPH 1.1.21.4019)
2014-03-12 09:59:31 99.68.78.126-S081-180S - Username Found- Password Match - Mozilla/5.0 (compatible; MSIE 10.0; Windows NT 6.2; WOW64; Trident/6.0; MALNJS)
2014-03-12 10:04:36 208.124.118.30-guest no guest-guest is guest - Username NOT Found - Password NOT Match [GUEST LOGIN] - Mozilla/5.0 (Windows NT 6.1; WOW64; Trident/7.0; rv:11.0) like Gecko
2014-03-12 10:06:01 208.124.118.30-C1054-4501C - Username Found- Password Match - Mozilla/5.0 (Windows NT 6.1; WOW64; Trident/7.0; rv:11.0) like Gecko
2014-03-12 10:09:04 208.124.118.30-guest no guest-guest is guest - Username NOT Found - Password NOT Match [GUEST LOGIN] - Mozilla/5.0 (Windows NT 6.1; WOW64; Trident/7.0; rv:11.0) like Gecko
2014-03-12 10:09:09 66.191.113.146-K072-270K - Username Found- Password Match - Mozilla/5.0 (compatible; MSIE 9.0; Windows NT 6.1; WOW64; Trident/5.0)
2014-03-12 10:12:51 208.124.118.30-guest no guest-guest is guest - Username NOT Found - Password NOT Match [GUEST LOGIN] - Mozilla/5.0 (Windows NT 6.1; WOW64; Trident/7.0; rv:11.0) like Gecko
2014-03-12 10:22:40 107.5.128.72-guest no guest-guest is guest - Username NOT Found - Password NOT Match [GUEST LOGIN] - Mozilla/5.0 (Windows NT 6.3; WOW64; Trident/7.0; Touch; rv:11.0) like Gecko
2014-03-12 10:28:13 107.5.128.72-guest no guest-guest is guest - Username NOT Found - Password NOT Match [GUEST LOGIN] - Mozilla/5.0 (Windows NT 6.3; WOW64; Trident/7.0; Touch; rv:11.0) like Gecko
2014-03-12 10:32:32 107.5.128.72-guest no guest-guest is guest - Username NOT Found - Password NOT Match [GUEST LOGIN] - Mozilla/5.0 (Windows NT 6.3; WOW64; Trident/7.0; Touch; rv:11.0) like Gecko
2014-03-12 10:57:12 99.68.78.126-S081-180S - Username Found- Password Match - Mozilla/5.0 (compatible; MSIE 10.0; Windows NT 6.2; WOW64; Trident/6.0; MALNJS)
2014-03-12 10:58:33 99.68.78.126-S081-180S - Username Found- Password Match - Mozilla/5.0 (compatible; MSIE 10.0; Windows NT 6.2; WOW64; Trident/6.0; MALNJS)
2014-03-12 11:10:48 208.124.118.30-admin-world sake day - Username NOT Found - Password NOT Match - Mozilla/5.0 (Windows NT 6.1; WOW64; Trident/7.0; rv:11.0) like Gecko
2014-03-12 11:10:58 208.124.118.30-admin-World Sake Day - Username NOT Found - Password NOT Match - Mozilla/5.0 (Windows NT 6.1; WOW64; Trident/7.0; rv:11.0) like Gecko
2014-03-12 11:13:38 208.124.118.30-guest no guest-guest is guest - Username NOT Found - Password NOT Match [GUEST LOGIN] - Mozilla/5.0 (Windows NT 6.1; WOW64; Trident/7.0; rv:11.0) like Gecko
2014-03-12 11:19:59 70.194.136.196-guest no guest-guest is guest - Username NOT Found - Password NOT Match [GUEST LOGIN] - Mozilla/5.0 (iPad; CPU OS 7_0_6 like Mac OS X) AppleWebKit/537.51.1 (KHTML, like Gecko) Version/7.0 Mobile/11B651 Safari/9537.53
2014-03-12 11:22:42 70.194.136.196-guest no guest-guest is guest - Username NOT Found - Password NOT Match [GUEST LOGIN] - Mozilla/5.0 (iPad; CPU OS 7_0_6 like Mac OS X) AppleWebKit/537.51.1 (KHTML, like Gecko) Version/7.0 Mobile/11B651 Safari/9537.53
2014-03-12 11:32:45 108.227.233.3-C115-511C - Username Found- Password Match - Mozilla/5.0 (Windows NT 6.1; WOW64; Trident/7.0; MDDRJS; rv:11.0) like Gecko
2014-03-12 11:49:15 99.68.78.126-S081-180S - Username Found- Password Match - Mozilla/5.0 (compatible; MSIE 10.0; Windows NT 6.2; WOW64; Trident/6.0; MALNJS)
2014-03-12 12:14:51 64.91.16.47-P1101-1011P - Username Found- Password Match - Mozilla/5.0 (Windows NT 6.1; rv:27.0) Gecko/20100101 Firefox/27.0
2014-03-12 12:44:13 64.91.16.47-P1101-1011P - Username Found- Password Match - Mozilla/5.0 (Windows NT 6.1; rv:27.0) Gecko/20100101 Firefox/27.0
2014-03-12 13:38:54 99.68.78.126-S081-180S - Username Found- Password Match - Mozilla/5.0 (compatible; MSIE 10.0; Windows NT 6.2; WOW64; Trident/6.0; MALNJS)
2014-03-12 13:52:54 99.68.78.126-S081-180S - Username Found- Password Match - Mozilla/5.0 (compatible; MSIE 10.0; Windows NT 6.2; WOW64; Trident/6.0; MALNJS)
2014-03-12 13:58:09 96.11.12.14-C087-780C - Username Found- Password Match - Mozilla/5.0 (Windows NT 5.1) AppleWebKit/537.36 (KHTML, like Gecko) Chrome/33.0.1750.146 Safari/537.36
2014-03-12 14:03:53 216.138.113.106-A002-200A - Username Found- Password Match - Mozilla/5.0 (Macintosh; Intel Mac OS X 10_9_2) AppleWebKit/537.36 (KHTML, like Gecko) Chrome/33.0.1750.149 Safari/537.36
2014-03-12 14:18:24 108.247.226.132-D126-621D - Username Found- Password Match - Mozilla/4.0 (compatible; MSIE 8.0; Windows NT 5.1; Trident/4.0; GTB5; .NET CLR 1.1.4322; .NET CLR 2.0.50727; .NET CLR 3.0.4506.2152; .NET CLR 3.5.30729; .NET4.0C; .NET4.0E; IPH 1.1.21.4019)
2014-03-12 14:21:12 64.91.16.47-P1101-1011P - Username Found- Password Match - Mozilla/5.0 (Windows NT 6.1; rv:27.0) Gecko/20100101 Firefox/27.0
2014-03-12 15:11:54 70.225.170.61-k028-820K - Username Found- Password Match - Mozilla/5.0 (Windows NT 6.3; WOW64; Trident/7.0; ASU2JS; rv:11.0) like Gecko
2014-03-12 15:26:17 216.51.203.149-C1029-9201C - Username Found- Password Match - Mozilla/5.0 (Windows NT 6.1; rv:27.0) Gecko/20100101 Firefox/27.0
2014-03-12 15:54:39 99.68.78.126-S081-180S - Username Found- Password Match - Mozilla/5.0 (compatible; MSIE 10.0; Windows NT 6.2; WOW64; Trident/6.0; MALNJS)
2014-03-12 16:03:01 69.21.196.26-B160-061B - Username Found- Password Match - Mozilla/5.0 (Windows NT 6.1; WOW64) AppleWebKit/537.36 (KHTML, like Gecko) Chrome/33.0.1750.146 Safari/537.36
2014-03-12 16:11:01 216.138.113.106-guest no guest-guest is guest - Username NOT Found - Password NOT Match [GUEST LOGIN] - Mozilla/5.0 (Macintosh; Intel Mac OS X 10_9_2) AppleWebKit/537.36 (KHTML, like Gecko) Chrome/33.0.1750.149 Safari/537.36
2014-03-12 16:14:46 216.138.113.106-A058-850A - Username Found- Password Match - Mozilla/5.0 (Macintosh; Intel Mac OS X 10_9_2) AppleWebKit/537.36 (KHTML, like Gecko) Chrome/33.0.1750.149 Safari/537.36
2014-03-12 16:29:45 216.138.113.106-A058-850A - Username Found- Password Match - Mozilla/5.0 (Macintosh; Intel Mac OS X 10_9_2) AppleWebKit/537.36 (KHTML, like Gecko) Chrome/33.0.1750.149 Safari/537.36
2014-03-12 16:35:53 208.124.118.30-guest no guest-guest is guest - Username NOT Found - Password NOT Match [GUEST LOGIN] - Mozilla/5.0 (Windows NT 6.1; WOW64; Trident/7.0; rv:11.0) like Gecko
2014-03-12 16:37:24 208.124.118.30-guest no guest-guest is guest - Username NOT Found - Password NOT Match [GUEST LOGIN] - Mozilla/5.0 (Windows NT 6.1; WOW64; Trident/7.0; rv:11.0) like Gecko
