2015-04-11 09:45:33 98.157.197.70-S137-s137 - Username Found - Password NOT Match - Mozilla/5.0 (Windows NT 6.1; WOW64; Trident/7.0; rv:11.0) like Gecko
2015-04-11 09:45:37 98.157.197.70-S137-731S - Username Found- Password Match - Mozilla/5.0 (Windows NT 6.1; WOW64; Trident/7.0; rv:11.0) like Gecko
2015-04-11 11:38:03 64.134.238.105-B160-o61B - Username Found - Password NOT Match - Mozilla/5.0 (Windows NT 6.1; WOW64) AppleWebKit/537.36 (KHTML, like Gecko) Chrome/41.0.2272.118 Safari/537.36
2015-04-11 11:38:13 64.134.238.105-B160-061B - Username Found- Password Match - Mozilla/5.0 (Windows NT 6.1; WOW64) AppleWebKit/537.36 (KHTML, like Gecko) Chrome/41.0.2272.118 Safari/537.36
2015-04-11 13:22:45 71.15.72.162-K033-330K - Username Found- Password Match - Mozilla/5.0 (Windows NT 6.1; WOW64; Trident/7.0; rv:11.0) like Gecko
2015-04-11 13:54:04 173.165.106.69-t034-430t - Username Found - Password NOT Match - Mozilla/5.0 (Windows NT 6.1; WOW64) AppleWebKit/537.36 (KHTML, like Gecko) Chrome/41.0.2272.118 Safari/537.36
2015-04-11 13:54:48 173.165.106.69-T034-430T - Username Found- Password Match - Mozilla/5.0 (Windows NT 6.1; WOW64) AppleWebKit/537.36 (KHTML, like Gecko) Chrome/41.0.2272.118 Safari/537.36
2015-04-11 15:29:03 173.19.30.145-B1008-8001B - Username Found- Password Match - Mozilla/5.0 (Windows NT 6.1; WOW64; rv:37.0) Gecko/20100101 Firefox/37.0
