2015-06-29 08:40:39 74.63.162.21-U1004-4001U - Username Found- Password Match - Mozilla/5.0 (compatible; MSIE 9.0; Windows NT 6.1; WOW64; Trident/5.0)
2015-06-29 08:49:45 74.63.162.21-U1004-4001U - Username Found- Password Match - Mozilla/5.0 (compatible; MSIE 9.0; Windows NT 6.1; WOW64; Trident/5.0)
2015-06-29 08:55:01 66.188.113.138-B160-061B - Username Found- Password Match - Mozilla/5.0 (Windows NT 6.1; WOW64) AppleWebKit/537.36 (KHTML, like Gecko) Chrome/43.0.2357.130 Safari/537.36
2015-06-29 09:01:44 74.63.162.21-U1004-4001U - Username Found- Password Match - Mozilla/5.0 (compatible; MSIE 9.0; Windows NT 6.1; WOW64; Trident/5.0)
2015-06-29 09:03:14 174.125.249.114-A1027-7021A - Username Found - Password NOT Match - Mozilla/5.0 (Windows NT 6.1; WOW64; Trident/7.0; rv:11.0) like Gecko
2015-06-29 09:03:23 174.125.249.114-A1027-7201A - Username Found- Password Match - Mozilla/5.0 (Windows NT 6.1; WOW64; Trident/7.0; rv:11.0) like Gecko
2015-06-29 09:10:24 173.161.110.97-L318-813L - Username Found- Password Match - Mozilla/5.0 (Windows NT 6.1; WOW64) AppleWebKit/537.36 (KHTML, like Gecko) Chrome/43.0.2357.81 Safari/537.36
2015-06-29 09:11:40 174.125.249.114-A1027-7021A - Username Found - Password NOT Match - Mozilla/5.0 (Windows NT 6.1; WOW64; Trident/7.0; rv:11.0) like Gecko
2015-06-29 09:11:44 174.125.249.114-A1027-7201A - Username Found- Password Match - Mozilla/5.0 (Windows NT 6.1; WOW64; Trident/7.0; rv:11.0) like Gecko
2015-06-29 09:22:07 74.63.162.21-U1004-4001U - Username Found- Password Match - Mozilla/5.0 (compatible; MSIE 9.0; Windows NT 6.1; WOW64; Trident/5.0)
2015-06-29 09:26:19 107.10.97.241-S081-180S - Username Found- Password Match - Mozilla/5.0 (Windows NT 6.3; WOW64; Trident/7.0; MALNJS; rv:11.0) like Gecko
2015-06-29 09:42:59 76.221.166.71-SO47-740S - Username NOT Found - Password NOT Match - Mozilla/5.0 (Windows NT 5.1) AppleWebKit/537.36 (KHTML, like Gecko) Chrome/37.0.2062.94 AOL/9.7 AOLBuild/4343.4049.US Safari/537.36
2015-06-29 09:43:25 76.221.166.71-SO47-740S - Username NOT Found - Password NOT Match - Mozilla/5.0 (Windows NT 5.1) AppleWebKit/537.36 (KHTML, like Gecko) Chrome/37.0.2062.94 AOL/9.7 AOLBuild/4343.4049.US Safari/537.36
2015-06-29 09:44:59 76.221.166.71-SO47-740S - Username NOT Found - Password NOT Match - Mozilla/5.0 (Windows NT 5.1) AppleWebKit/537.36 (KHTML, like Gecko) Chrome/43.0.2357.130 Safari/537.36
2015-06-29 09:46:03 76.221.166.71-SO47-740S - Username NOT Found - Password NOT Match - Mozilla/5.0 (Windows NT 5.1) AppleWebKit/537.36 (KHTML, like Gecko) Chrome/43.0.2357.130 Safari/537.36
2015-06-29 09:53:55 76.221.166.71-S047-740S - Username Found- Password Match - Mozilla/5.0 (Windows NT 5.1) AppleWebKit/537.36 (KHTML, like Gecko) Chrome/37.0.2062.94 AOL/9.7 AOLBuild/4343.4049.US Safari/537.36
2015-06-29 11:10:44 107.182.192.225-C1157-7511C - Username Found- Password Match - Mozilla/5.0 (Windows NT 6.1; WOW64) AppleWebKit/537.36 (KHTML, like Gecko) Chrome/43.0.2357.130 Safari/537.36
2015-06-29 11:11:53 173.26.89.187-n014-410N - Username Found- Password Match - Mozilla/5.0 (Windows NT 6.1; WOW64; Trident/7.0; rv:11.0) like Gecko
2015-06-29 11:14:43 107.182.192.225-c1157-7511C - Username Found- Password Match - Mozilla/5.0 (Windows NT 6.1; WOW64) AppleWebKit/537.36 (KHTML, like Gecko) Chrome/43.0.2357.130 Safari/537.36
2015-06-29 11:38:19 69.174.164.121-C115-511X - Username Found - Password NOT Match - Mozilla/5.0 (Windows NT 6.1; WOW64; Trident/7.0; rv:11.0) like Gecko
2015-06-29 11:38:25 69.174.164.121-C115-511C - Username Found- Password Match - Mozilla/5.0 (Windows NT 6.1; WOW64; Trident/7.0; rv:11.0) like Gecko
2015-06-29 11:45:54 63.152.80.154-T1033-3301T - Username Found- Password Match - Mozilla/5.0 (compatible; MSIE 9.0; Windows NT 6.0; WOW64; Trident/5.0)
2015-06-29 13:03:14 50.198.53.65-B446-644B - Username Found- Password Match - Mozilla/5.0 (Windows NT 6.1; WOW64; Trident/7.0; rv:11.0) like Gecko
2015-06-29 13:26:42 107.182.192.225-crcabinetry-3ofakind - Username NOT Found - Password NOT Match - Mozilla/5.0 (Windows NT 6.3; WOW64; Trident/7.0; MATBJS; rv:11.0) like Gecko
2015-06-29 13:29:47 107.182.192.225-C1157-7511C - Username Found- Password Match - Mozilla/5.0 (Windows NT 6.3; WOW64; Trident/7.0; MATBJS; rv:11.0) like Gecko
2015-06-29 14:13:09 173.26.89.187-N014-410N - Username Found- Password Match - Mozilla/5.0 (Windows NT 6.1; WOW64) AppleWebKit/537.36 (KHTML, like Gecko) Chrome/43.0.2357.130 Safari/537.36
2015-06-29 14:45:00 50.198.53.65-B446-644B - Username Found- Password Match - Mozilla/5.0 (Windows NT 6.1; WOW64; Trident/7.0; rv:11.0) like Gecko
2015-06-29 15:09:55 69.29.254.73-A1027-7021A - Username Found - Password NOT Match - Mozilla/5.0 (Windows NT 6.1; WOW64; Trident/7.0; rv:11.0) like Gecko
2015-06-29 15:09:59 69.29.254.73-A1027-7201A - Username Found- Password Match - Mozilla/5.0 (Windows NT 6.1; WOW64; Trident/7.0; rv:11.0) like Gecko
2015-06-29 15:15:28 69.29.254.73-A1027-7021A - Username Found - Password NOT Match - Mozilla/5.0 (Windows NT 6.1; WOW64; Trident/7.0; rv:11.0) like Gecko
2015-06-29 15:15:32 69.29.254.73-A1027-7201A - Username Found- Password Match - Mozilla/5.0 (Windows NT 6.1; WOW64; Trident/7.0; rv:11.0) like Gecko
2015-06-29 15:23:47 98.253.68.70-T055-550T - Username Found- Password Match - Mozilla/5.0 (Windows NT 6.1; WOW64) AppleWebKit/537.36 (KHTML, like Gecko) Chrome/43.0.2357.130 Safari/537.36
